Regression Table for Chosa Jisshu — jisshu_reg • jisshutools
…
data <- tibble::tibble(
  x1 = rnorm(100, mean = 0, sd = 1),
  x2 = rnorm(100, mean = 0, sd = 1),
  y = 0.2 + 0.3*x1 + 0.5*x2 + rnorm(100, mean = 0, sd = 0.1),
  y_bin = rbinom(100, 1, plogis(y)),
  y_multinom = cut(
    y,
    breaks = quantile(y, probs = c(0, 0.25, 0.75, 1)),
    labels = c('Q1', 'Q2', 'Q3'),
    include.lowest = TRUE
  )
)

data
#> # A tibble: 100 × 5
#>          x1     x2       y y_bin y_multinom
#>       <dbl>  <dbl>   <dbl> <int> <fct>     
#>  1 -1.40    -0.387 -0.457      0 Q1        
#>  2  0.255   -0.785  0.0199     0 Q2        
#>  3 -2.44    -1.06  -1.07       0 Q1        
#>  4 -0.00557 -0.796 -0.227      1 Q1        
#>  5  0.622   -1.76  -0.736      1 Q1        
#>  6  1.15    -0.691  0.206      0 Q2        
#>  7 -1.82    -0.559 -0.736      1 Q1        
#>  8 -0.247   -0.537 -0.206      0 Q2        
#>  9 -0.244    0.227  0.0339     0 Q2        
#> 10 -0.283    0.978  0.869      0 Q3        
#> # ℹ 90 more rows
…
