Simple Tabulation for Chosa Jisshu — jisshu_simple_tabulation • jisshutools
…
data
#> # A tibble: 100 × 5
#>       ID grade     gender     Q1          Q2                        
#>    <int> <int+lbl> <dbl+lbl>  <dbl+lbl>   <dbl+lbl>                 
#>  1     1 3 [3年]   9 [無回答]  1.78       1 [あてはまる]            
#>  2     2 1 [1年]   2 [女]      0.387      1 [あてはまる]            
#>  3     3 2 [2年]   2 [女]     -0.919      9 [無回答]                
#>  4     4 2 [2年]   1 [男]     -1.58       3 [あまりあてはまらない]  
#>  5     5 1 [1年]   2 [女]      9 [無回答] 1 [あてはまる]            
#>  6     6 3 [3年]   2 [女]      8 [非該当] 2 [まああてはまる]        
#>  7     7 1 [1年]   1 [男]      0.00357    4 [まったくあてはまらない]
#>  8     8 3 [3年]   2 [女]     -0.356      2 [まああてはまる]        
#>  9     9 1 [1年]   2 [女]      1.15       3 [あまりあてはまらない]  
#> 10    10 2 [2年]   2 [女]     -0.221      9 [無回答]                
#> # ℹ 90 more rows
…
#> # A tibble: 3 × 2
#>   grade         n
#>   <int+lbl> <int>
#> 1 1 [1年]      28
#> 2 2 [2年]      29
#> 3 3 [3年]      43
count(data, gender)
#> # A tibble: 3 × 2
#>   gender         n
#>   <dbl+lbl>  <int>
#> 1 1 [男]        41
#> 2 2 [女]        50
#> 3 9 [無回答]     9
count(data, Q1, sort = TRUE)
#> # A tibble: 83 × 2
#>    Q1              n
#>    <dbl+lbl>   <int>
#>  1  9 [無回答]    13
#>  2  8 [非該当]     6
#>  3 -2.81           1
#>  4 -2.17           1
#>  5 -1.58           1
#>  6 -1.41           1
#>  7 -1.38           1
#>  8 -1.33           1
#>  9 -1.26           1
#> 10 -1.24           1
#> # ℹ 73 more rows
…
